{"name":"GET ALL - As admin I can get all data details order","id":"order;get-all---as-admin-i-can-get-all-data-details-order","testSteps":[{"number":1,"description":"Given admin has api endpoint get all order","duration":46,"startTime":"2023-06-16T11:45:20.095+07:00[Asia/Bangkok]","result":"SUCCESS","precondition":false,"level":0,"children":[{"number":2,"description":"admin has api endpoint get all order","duration":1,"startTime":"2023-06-16T11:45:20.129+07:00[Asia/Bangkok]","result":"SUCCESS","precondition":false,"level":1}]},{"number":3,"description":"When admin send HTTP request get all order","duration":147,"startTime":"2023-06-16T11:45:20.142+07:00[Asia/Bangkok]","result":"SUCCESS","precondition":false,"level":0,"children":[{"number":4,"description":"admin send HTTP request get all order","duration":142,"startTime":"2023-06-16T11:45:20.144+07:00[Asia/Bangkok]","result":"SUCCESS","precondition":false,"level":1,"children":[{"number":5,"description":"admin has api endpoint get all order","duration":0,"startTime":"2023-06-16T11:45:20.147+07:00[Asia/Bangkok]","result":"SUCCESS","precondition":false,"level":2},{"number":6,"description":"GET http://128.199.206.32:8000/api/v1/admin/orders","duration":0,"startTime":"2023-06-16T11:45:20.285+07:00[Asia/Bangkok]","result":"SUCCESS","restQuery":{"method":"GET","path":"http://128.199.206.32:8000/api/v1/admin/orders","content":"","contentType":"null","requestHeaders":"Authorization\u003dBearer eyJhbGciOiJIUzI1NiIsInR5cCI6IkpXVCJ9.eyJpZCI6MiwiZXhwIjoxNjg2OTAxNTE0fQ.NNXQ02IgtH81Hg_OCpKB6Wt5aKdJsvcIHQPf23FFT8k\r\n\t\t\t\tAccept\u003d*/*","requestCookies":"","responseHeaders":"Content-Type: application/json; charset\u003dUTF-8\r\nVary: Origin\r\nDate: Fri, 16 Jun 2023 04:45:20 GMT\r\nContent-Length: 1566\r","responseCookies":"\r","responseBody":"{\n    \"meta\": {\n        \"code\": 200,\n        \"status\": \"success\",\n        \"message\": \"successfully get data order\"\n    },\n    \"data\": [\n        {\n            \"order_id\": \"01-12062023\",\n            \"order_option\": \"DINE_IN\",\n            \"created_at\": \"2023-06-12T16:02:24+07:00\",\n            \"status\": \"Paid\",\n            \"payment\": \"BCA\",\n            \"grand_total\": 44015\n        },\n        {\n            \"order_id\": \"02-12062023\",\n            \"order_option\": \"DINE_IN\",\n            \"created_at\": \"2023-06-12T17:29:37+07:00\",\n            \"status\": \"Paid\",\n            \"payment\": \"BCA\",\n            \"grand_total\": 44015\n        },\n        {\n            \"order_id\": \"03-12062023\",\n            \"order_option\": \"DINE_IN\",\n            \"created_at\": \"2023-06-12T17:33:32+07:00\",\n            \"status\": \"Paid\",\n            \"payment\": \"BCA\",\n            \"grand_total\": 44015\n        },\n        {\n            \"order_id\": \"04-12062023\",\n            \"order_option\": \"DINE_IN\",\n            \"created_at\": \"2023-06-12T19:50:44+07:00\",\n            \"status\": \"Paid\",\n            \"payment\": \"BCA\",\n            \"grand_total\": 44044\n        },\n        {\n            \"order_id\": \"05-12062023\",\n            \"order_option\": \"DINE_IN\",\n            \"created_at\": \"2023-06-12T20:01:16+07:00\",\n            \"status\": \"Paid\",\n            \"payment\": \"BCA\",\n            \"grand_total\": 44044\n        },\n        {\n            \"order_id\": \"06-12062023\",\n            \"order_option\": \"DINE_IN\",\n            \"created_at\": \"2023-06-12T20:22:39+07:00\",\n            \"status\": \"PAID\",\n            \"payment\": \"BCA\",\n            \"grand_total\": 44044\n        },\n        {\n            \"order_id\": \"07-12062023\",\n            \"order_option\": \"DINE_IN\",\n            \"created_at\": \"2023-06-12T20:24:13+07:00\",\n            \"status\": \"PAID\",\n            \"payment\": \"BCA\",\n            \"grand_total\": 1529000\n        },\n        {\n            \"order_id\": \"08-12062023\",\n            \"order_option\": \"DINE_IN\",\n            \"created_at\": \"2023-06-12T20:24:30+07:00\",\n            \"status\": \"PAID\",\n            \"payment\": \"BCA\",\n            \"grand_total\": 1529000\n        },\n        {\n            \"order_id\": \"09-12062023\",\n            \"order_option\": \"DINE_IN\",\n            \"created_at\": \"2023-06-12T20:24:40+07:00\",\n            \"payment\": \"\",\n            \"grand_total\": 0\n        },\n        {\n            \"order_id\": \"10-12062023\",\n            \"order_option\": \"DINE_IN\",\n            \"created_at\": \"2023-06-12T20:27:09+07:00\",\n            \"payment\": \"\",\n            \"grand_total\": 0\n        }\n    ],\n    \"pagination\": {\n        \"page\": 1,\n        \"limit\": 10,\n        \"total_items\": 29,\n        \"total_pages\": 3\n    }\n}","statusCode":200},"precondition":false,"level":2}]}]},{"number":7,"description":"Then admin receive response code 200","duration":11,"startTime":"2023-06-16T11:45:20.290+07:00[Asia/Bangkok]","result":"SUCCESS","precondition":false,"level":0,"children":[{"number":8,"description":"admin receive response code 200","duration":1,"startTime":"2023-06-16T11:45:20.298+07:00[Asia/Bangkok]","result":"SUCCESS","precondition":false,"level":1}]},{"number":9,"description":"And admin validate response body get order information","duration":106,"startTime":"2023-06-16T11:45:20.302+07:00[Asia/Bangkok]","result":"SUCCESS","precondition":false,"level":0,"children":[{"number":10,"description":"admin validate response body get order information","duration":99,"startTime":"2023-06-16T11:45:20.304+07:00[Asia/Bangkok]","result":"SUCCESS","precondition":false,"level":1}]}],"userStory":{"id":"order","storyName":"Order","displayName":"Order","path":"file:///E:/SEMESTER%20VI/KAMPUS%20MERDEKA/capstone-pos/automation/api-automation-pos/src/test/resources/api/Order/Order.feature","narrative":"  As an a admin\n  I want to get order information\n  So that I can see all order list","type":"feature","qualifiedTag":{"name":"Order/Order","type":"feature","displayName":"Order/Order"}},"featureTag":{"name":"Order/Order","type":"feature","displayName":"Order/Order"},"title":"GET ALL - As admin I can get all data details order","description":"","tags":[{"name":"GetAllCashier","type":"tag","displayName":"GetAllCashier"}],"allTags":[{"name":"Order/Order","type":"feature","displayName":"Order/Order"},{"name":"GetAllCashier","type":"tag","displayName":"GetAllCashier"}],"startTime":"2023-06-16T11:45:20.086+07:00[Asia/Bangkok]","duration":323,"projectKey":"","isManualTestingUpToDate":false,"context":"windows","manual":false,"testSource":"Cucumber","result":"SUCCESS"}